{
  "settings" : {
    "minOSVer" : "10.0.0",
    "minSDKVer" : "1.0.0",
    "idleTimerDisabled" : false,
    "autoKeyboardEnabled" : false,
    "keyboardToolbarEnabled" : false,
    "rotateDisabled" : false
  },
  "info" : {
    "version" : "1.0.0",
    "author" : "zhong666",
    "types" : 5,
    "website" : "",
    "name" : "Opener",
    "url" : ""
  },
  "widget" : {
    "staticSize" : false,
    "tintColor" : "",
    "height" : 0,
    "iconColor" : ""
  }
}