{
  "props" : {
    "id" : "main"
  },
  "views" : [
    {
      "type" : "button",
      "props" : {
        "id" : "button[0]",
        "title" : "Hello",
        "frame" : {
          "y" : 120,
          "x" : 138,
          "width" : 100,
          "height" : 36
        }
      }
    }
  ]
}